<?xml version="1.0" encoding="UTF-8"?>
<svg width="81px" height="23px" viewBox="0 0 81 23" version="1.1" xmlns="http://www.w3.org/2000/svg" xmlns:xlink="http://www.w3.org/1999/xlink">
  <title>Imagebox</title>
  <g stroke="none" stroke-width="1" fill="none" fill-rule="evenodd">
    <g fill="currentColor">
      <path d="M0,0.1216125 L0,19.7616958 L37.2445714,19.7629736 L40.5016071,22.9999042 L43.758,19.7629736 L81,19.7616958 L81,0.1216125 L0,0.1216125 Z M37.9340357,18.1270986 L1.64667857,18.1258208 L1.64667857,1.75780694 L79.3533214,1.75780694 L79.3533214,18.1258208 L43.0759286,18.1280569 L40.5016071,20.6861681 L37.9340357,18.1270986 Z"></path>
      <polygon points="9.50560714 6.22022222 11.0716071 6.22022222 11.0716071 13.6575278 9.50560714 13.6575278"></polygon>
      <polygon points="20.0158393 6.22012639 17.4421607 8.78143194 14.8678393 6.22012639 13.2211607 6.22012639 13.2211607 13.6574319 14.8678393 13.6574319 14.8678393 8.53641806 17.4421607 11.0958069 20.0965179 8.53801528 20.0965179 13.6574319 21.6625179 13.6574319 21.6625179 6.22012639"></polygon>
      <path d="M27.7054714,10.5444778 L26.7109714,8.13267222 L25.7171143,10.5444778 L27.7054714,10.5444778 Z M25.9736143,6.16713056 L27.4920429,6.16713056 L30.6992571,13.6574639 L28.9780071,13.6574639 L28.2936857,11.9890056 L25.1289,11.9890056 L24.4445786,13.6574639 L22.7660786,13.6574639 L25.9736143,6.16713056 Z"></path>
      <path d="M31.067775,9.96018194 L31.067775,9.93909861 C31.067775,7.82437639 32.7250607,6.09266806 34.9914536,6.09266806 C36.3388821,6.09266806 37.1514536,6.45364028 37.9318821,7.11233472 L36.8946321,8.3556125 C36.3173464,7.87772361 35.804025,7.60108472 34.9380964,7.60108472 C33.7401321,7.60108472 32.789025,8.65333472 32.789025,9.91769583 L32.789025,9.93909861 C32.789025,11.2992931 33.7301679,12.2969181 35.0560607,12.2969181 C35.6545607,12.2969181 36.1894179,12.1483764 36.6059893,11.8512931 L36.6059893,10.7891403 L34.949025,10.7891403 L34.949025,9.37591806 L38.1993107,9.37591806 L38.1993107,12.6055014 C37.4291679,13.2533347 36.371025,13.7852097 35.0027036,13.7852097 C32.6713821,13.7852097 31.067775,12.1592375 31.067775,9.96018194"></path>
      <polygon points="40.0482964 6.22012639 45.693225 6.22012639 45.693225 7.67583472 41.6840464 7.67583472 41.6840464 9.18489028 45.2120464 9.18489028 45.2120464 10.6402792 41.6840464 10.6402792 41.6840464 12.2020431 45.7462607 12.2020431 45.7462607 13.6574319 40.0482964 13.6574319"></polygon>
      <path d="M51.1455857,10.5871875 L49.2427286,10.5871875 L49.2427286,12.2227431 L51.1989429,12.2227431 C51.9263357,12.2227431 52.3647643,11.9678264 52.3647643,11.4158264 L52.3647643,11.3944236 C52.3647643,10.8954514 51.9906214,10.5871875 51.1455857,10.5871875 L51.1455857,10.5871875 Z M51.9472286,8.41911806 C51.9472286,7.93100694 51.5621571,7.65436806 50.8685143,7.65436806 L49.2427286,7.65436806 L49.2427286,9.22667361 L50.7614786,9.22667361 C51.4875857,9.22667361 51.9472286,8.99315972 51.9472286,8.44052083 L51.9472286,8.41911806 Z M47.6384786,6.2200625 L51.1134429,6.2200625 C51.9687643,6.2200625 52.6424786,6.45389583 53.0693357,6.87875694 C53.4126214,7.21864583 53.5829786,7.63296528 53.5829786,8.14311806 L53.5829786,8.16452083 C53.5829786,9.00402083 53.1345857,9.47136806 52.6006929,9.76909028 C53.4659786,10.0987569 54.0005143,10.5977292 54.0005143,11.5959931 L54.0005143,11.6177153 C54.0005143,12.9772708 52.8883714,13.6573681 51.1989429,13.6573681 L47.6384786,13.6573681 L47.6384786,6.2200625 Z"></path>
      <path d="M61.3658571,9.96018194 L61.3658571,9.93909861 C61.3658571,8.66419583 60.4253571,7.60108472 59.0994643,7.60108472 C57.7742143,7.60108472 56.8536429,8.64247361 56.8536429,9.91769583 L56.8536429,9.93909861 C56.8536429,11.2143208 57.7944643,12.2761542 59.1206786,12.2761542 C60.4468929,12.2761542 61.3658571,11.2350847 61.3658571,9.96018194 M55.1323929,9.96018194 L55.1323929,9.93909861 C55.1323929,7.82437639 56.8118571,6.09266806 59.1206786,6.09266806 C61.4301429,6.09266806 63.0871071,7.8036125 63.0871071,9.91769583 L63.0871071,9.93909861 C63.0871071,12.0535014 61.40925,13.7852097 59.0994643,13.7852097 C56.79,13.7852097 55.1323929,12.0742653 55.1323929,9.96018194"></path>
      <polygon points="71.6214536 12.6389472 68.903775 9.93868333 71.6208107 7.23841944 70.4565964 6.08107222 67.7395607 8.78165556 65.022525 6.08203056 63.8583107 7.23873889 66.5747036 9.93932222 63.8583107 12.6389472 65.0218821 13.795975 67.7395607 11.0957111 70.4569179 13.795975"></polygon>
    </g>
  </g>
</svg>