<?xml version="1.0" encoding="UTF-8" standalone="no"?>
<svg width="15px" height="15px" viewBox="0 0 15 15" version="1.1" xmlns="http://www.w3.org/2000/svg" xmlns:xlink="http://www.w3.org/1999/xlink">
  <title>Search</title>
  <g stroke="none" stroke-width="1" fill="none" fill-rule="evenodd">
    <g transform="translate(-1365.000000, -2505.000000)" fill="currentColor">
      <g transform="translate(1365.000000, 2505.000000)">
        <path d="M11.75,6 C11.75,2.82436269 9.17563731,0.25 6,0.25 C2.82436269,0.25 0.25,2.82436269 0.25,6 C0.25,9.17563731 2.82436269,11.75 6,11.75 C9.17563731,11.75 11.75,9.17563731 11.75,6 Z M1.75,6 C1.75,3.65278981 3.65278981,1.75 6,1.75 C8.34721019,1.75 10.25,3.65278981 10.25,6 C10.25,8.34721019 8.34721019,10.25 6,10.25 C3.65278981,10.25 1.75,8.34721019 1.75,6 Z" ></path>
        <polygon points="12.2928932 13.7071068 13 14.4142136 14.4142136 13 13.7071068 12.2928932 10.7071068 9.29289322 10 8.58578644 8.58578644 10 9.29289322 10.7071068"></polygon>
      </g>
    </g>
  </g>
</svg>